…
    ## Warning in get_mg_per_sq_m(percent_tic): NAs introduced by coercion

``` r
biomass_units
```

    ## # A tibble: 27 × 6
    ##    sample_id tn_mg_per_m2 tc_g_per_m2 tic_mg_per_m2 toc_g_per_m2 mass_g_per_m2
    ##    <chr>            <dbl>       <dbl>         <dbl>        <dbl>         <dbl>
    ##  1 whi21.03         74.7        3.03          0.560        3.03          4.79 
    ##  2 whi21.05         30.0        0.619         0.964        0.618         4.07 
    ##  3 whi21.06         28.3        0.781         0.337        0.780         3.64 
    ##  4 whi21.07         15.7        0.352         1.22         0.351         3.04 
    ##  5 whi21.08         38.6        0.739         1.17         0.737         5.52 
    ##  6 whi21.09          6.43       0.100        NA            0.100         0.709
    ##  7 whi21.10        281.         3.48          4.16         3.47         36.4  
    ##  8 tri21.03        131.         4.19          2.21         4.18          6.57 
    ##  9 tri21.04         26.4        0.869         0.300        0.868         2.25 
    ## 10 tri21.05          4.63       0.116         0.226        0.116         0.800
    ## # … with 17 more rows
…
``` r
biomass_units %>% 
  arrange(-toc_g_per_m2)
```

    ## # A tibble: 27 × 6
    ##    sample_id tn_mg_per_m2 tc_g_per_m2 tic_mg_per_m2 toc_g_per_m2 mass_g_per_m2
    ##    <chr>            <dbl>       <dbl>         <dbl>        <dbl>         <dbl>
    ##  1 bdw21.04         226.        10.4          0.929        10.4          19.0 
    ##  2 bdw21.03         104.         4.96         0.847         4.96          9.01
    ##  3 tri21.14         164.         4.45         0.791         4.45         11.2 
    ##  4 tri21.03         131.         4.19         2.21          4.18          6.57
    ##  5 tri21.06         113.         3.66         1.83          3.66          6.13
    ##  6 whi21.10         281.         3.48         4.16          3.47         36.4 
    ##  7 tri21.15         130.         3.44         0.594         3.44          7.89
    ##  8 whi21.03          74.7        3.03         0.560         3.03          4.79
    ##  9 bdw21.09         120.         1.97         0.808         1.97          9.39
    ## 10 bdw21.02          42.8        1.96         0.242         1.96          3.37
    ## # … with 17 more rows

bdw21.04 has highest organics

``` r
biomass_units %>% 
  arrange(-tic_mg_per_m2)
```

    ## # A tibble: 27 × 6
    ##    sample_id tn_mg_per_m2 tc_g_per_m2 tic_mg_per_m2 toc_g_per_m2 mass_g_per_m2
    ##    <chr>            <dbl>       <dbl>         <dbl>        <dbl>         <dbl>
    ##  1 whi21.10         281.        3.48          4.16         3.47         36.4  
    ##  2 tri21.08          13.8       0.193         2.57         0.190         0.989
    ##  3 tri21.03         131.        4.19          2.21         4.18          6.57 
    ##  4 tri21.06         113.        3.66          1.83         3.66          6.13 
    ##  5 tri21.10          50.0       1.25          1.38         1.25          3.86 
    ##  6 tri21.12          54.8       1.53          1.29         1.53          3.90 
    ##  7 whi21.07          15.7       0.352         1.22         0.351         3.04 
    ##  8 whi21.08          38.6       0.739         1.17         0.737         5.52 
    ##  9 whi21.05          30.0       0.619         0.964        0.618         4.07 
    ## 10 bdw21.08          55.0       1.14          0.953        1.14          7.04 
    ## # … with 17 more rows

whi21.10, the dirty snow sample, has highest inorganics, as well as
highest nitrogen

``` r
biomass_units %>% 
  arrange(-mass_g_per_m2)
```

    ## # A tibble: 27 × 6
    ##    sample_id tn_mg_per_m2 tc_g_per_m2 tic_mg_per_m2 toc_g_per_m2 mass_g_per_m2
    ##    <chr>            <dbl>       <dbl>         <dbl>        <dbl>         <dbl>
    ##  1 whi21.10         281.        3.48          4.16         3.47          36.4 
    ##  2 bdw21.04         226.       10.4           0.929       10.4           19.0 
    ##  3 tri21.14         164.        4.45          0.791        4.45          11.2 
    ##  4 bdw21.09         120.        1.97          0.808        1.97           9.39
    ##  5 bdw21.03         104.        4.96          0.847        4.96           9.01
    ##  6 tri21.15         130.        3.44          0.594        3.44           7.89
    ##  7 bdw21.08          55.0       1.14          0.953        1.14           7.04
    ##  8 tri21.03         131.        4.19          2.21         4.18           6.57
    ##  9 tri21.06         113.        3.66          1.83         3.66           6.13
    ## 10 whi21.08          38.6       0.739         1.17         0.737          5.52
    ## # … with 17 more rows
…
